id;street_address;postal_code;city;state_province
1;Rubber Tasty;actuating architecture action-items;Lake Antwan;Lithuanian
2;networks Computer Integration;red Concrete;Bountiful;cross-platform Chair
3;Customizable Diverse harness;Health Malta;Luellahaven;Account
4;ADP;Multi-channelled hard;Macejkovicville;Pennsylvania York
5;synergies;Central;West Freddychester;Russian
6;Fresh frame Loan;Refined wireless;South Deanfort;purple
7;mint;overriding standardization;Port Orrinport;budgetary
8;Ohio SCSI North;payment Generic navigate;Ebertborough;Engineer Kids multi-byte
9;Optimization;deliverables Light;Salt Lake City;bypass 1080p Account
10;Soap lime driver;Unbranded;Mayertfort;Developer streamline Vision-oriented
