id;creation_date;price
1;2022-04-14T12:05:01;43788
2;2022-04-14T23:37:02;78231
3;2022-04-14T13:48:22;21457
4;2022-04-14T10:01:22;56321
5;2022-04-15T05:13:30;74361
6;2022-04-14T20:38:34;53065
7;2022-04-15T05:57:13;10981
8;2022-04-15T03:10:31;61256
9;2022-04-14T19:36:27;92183
10;2022-04-15T00:18:48;47798
