{
  "applications": ["blog"],
  "changelogDate": "20220415082957",
  "dto": "mapstruct",
  "embedded": false,
  "entityTableName": "a_user",
  "fields": [
    {
      "fieldName": "id",
      "fieldType": "Long",
      "fieldValidateRules": ["unique", "required"]
    },
    {
      "fieldName": "name",
      "fieldType": "String"
    },
    {
      "fieldName": "surname",
      "fieldType": "String"
    },
    {
      "fieldName": "email",
      "fieldType": "String"
    },
    {
      "fieldName": "phoneNumber",
      "fieldType": "String",
      "fieldValidateRules": ["pattern"],
      "fieldValidateRulesPattern": "^(?:(?:\\+|00)33[\\s.-]{0,3}(?:\\(0\\)[\\s.-]{0,3})?|0)[1-9](?:(?:[\\s.-]?\\d{2}){4}|\\d{2}(?:[\\s.-]?\\d{3}){2})$"
    }
  ],
  "fluentMethods": true,
  "jpaMetamodelFiltering": false,
  "name": "AUser",
  "pagination": "no",
  "readOnly": false,
  "relationships": [
    {
      "otherEntityName": "restaurant",
      "otherEntityRelationshipName": "owner",
      "relationshipName": "possesses",
      "relationshipType": "many-to-one"
    },
    {
      "otherEntityName": "restaurant",
      "otherEntityRelationshipName": "aUser",
      "relationshipName": "restaurant",
      "relationshipType": "many-to-one"
    },
    {
      "otherEntityName": "cooperative",
      "otherEntityRelationshipName": "member",
      "relationshipName": "areIn",
      "relationshipType": "many-to-one"
    },
    {
      "otherEntityName": "cooperative",
      "otherEntityRelationshipName": "leader",
      "relationshipName": "lead",
      "relationshipType": "many-to-one"
    },
    {
      "otherEntityName": "basket",
      "otherEntityRelationshipName": "by",
      "relationshipName": "own",
      "relationshipType": "many-to-one"
    },
    {
      "otherEntityName": "delivery",
      "otherEntityRelationshipName": "creator",
      "relationshipName": "creation",
      "relationshipType": "one-to-many"
    }
  ],
  "service": "serviceImpl"
}
